%YAML 1.1
%TAG !u! tag:unity3d.com,2011:
--- !u!74 &7400000
AnimationClip:
  m_ObjectHideFlags: 0
  m_CorrespondingSourceObject: {fileID: 0}
  m_PrefabInternal: {fileID: 0}
  m_Name: ABotWalk
  serializedVersion: 6
  m_Legacy: 0
  m_Compressed: 0
  m_UseHighQualityCurve: 1
  m_RotationCurves: []
  m_CompressedRotationCurves: []
  m_EulerCurves: []
  m_PositionCurves: []
  m_ScaleCurves: []
  m_FloatCurves:
  - curve:
      serializedVersion: 2
      m_Curve:
      - serializedVersion: 3
        time: 0
        value: -3.547203
        inSlope: 0
        outSlope: 0
        tangentMode: 136
        weightedMode: 0
        inWeight: 0.33333334
        outWeight: 0.33333334
      - serializedVersion: 3
        time: 0.9166667
        value: -3.4531145
        inSlope: 0
        outSlope: 0
        tangentMode: 136
        weightedMode: 0
        inWeight: 0.33333334
        outWeight: 0.33333334
      m_PreInfinity: 2
      m_PostInfinity: 2
      m_RotationOrder: 4
    attribute: m_Offset.y
    path: 
    classID: 58
    script: {fileID: 0}
  - curve:
      serializedVersion: 2
      m_Curve:
      - serializedVersion: 3
        time: 0
        value: 1.4336592
        inSlope: 0
        outSlope: 0
        tangentMode: 136
        weightedMode: 0
        inWeight: 0.33333334
        outWeight: 0.33333334
      - serializedVersion: 3
        time: 0.9166667
        value: 1.3395709
        inSlope: 0
        outSlope: 0
        tangentMode: 136
        weightedMode: 0
        inWeight: 0.33333334
        outWeight: 0.33333334
      m_PreInfinity: 2
      m_PostInfinity: 2
      m_RotationOrder: 4
    attribute: m_Radius
    path: 
    classID: 58
    script: {fileID: 0}
  m_PPtrCurves:
  - curve:
    - time: 0
      value: {fileID: 21300000, guid: 17eb14b3830ec3a4ca2d808e644d783e, type: 3}
    - time: 0.083333336
      value: {fileID: 21300000, guid: ad689e40e106ab949ac87be93429c2c4, type: 3}
    - time: 0.16666667
      value: {fileID: 21300000, guid: 42a25d13ad55317449997b637f03fa40, type: 3}
    - time: 0.25
      value: {fileID: 21300000, guid: 8c7efa5d9e4ce5b488b01897d80c5073, type: 3}
    - time: 0.33333334
      value: {fileID: 21300000, guid: 48acf7caf250c8d48869b45a850a5274, type: 3}
    - time: 0.41666666
      value: {fileID: 21300000, guid: 74d3e3ef2405db04a85a51b80c76b3fe, type: 3}
    - time: 0.5
      value: {fileID: 21300000, guid: 95c2427eb626cd04c8930b0e45f4f2e9, type: 3}
    - time: 0.5833333
      value: {fileID: 21300000, guid: ce0c73d394c7cb24280b9ba348bbbaf8, type: 3}
    - time: 0.6666667
      value: {fileID: 21300000, guid: 198c8d6ed49d3084cbbcaf87cf8599c4, type: 3}
    - time: 0.75
      value: {fileID: 21300000, guid: b3a69284f30ee674980489729b200fb8, type: 3}
    - time: 0.8333333
      value: {fileID: 21300000, guid: 8fb5e1ad59363f342b07a9ba842cd4f8, type: 3}
    - time: 0.9166667
      value: {fileID: 21300000, guid: 02164c66826123e4c87a9fedd242c473, type: 3}
    attribute: m_Sprite
    path: 
    classID: 212
    script: {fileID: 0}
  m_SampleRate: 12
  m_WrapMode: 0
  m_Bounds:
    m_Center: {x: 0, y: 0, z: 0}
    m_Extent: {x: 0, y: 0, z: 0}
  m_ClipBindingConstant:
    genericBindings:
    - serializedVersion: 2
      path: 0
      attribute: 1872933342
      script: {fileID: 0}
      typeID: 58
      customType: 0
      isPPtrCurve: 0
    - serializedVersion: 2
      path: 0
      attribute: 1984117138
      script: {fileID: 0}
      typeID: 58
      customType: 0
      isPPtrCurve: 0
    - serializedVersion: 2
      path: 0
      attribute: 0
      script: {fileID: 0}
      typeID: 212
      customType: 23
      isPPtrCurve: 1
    pptrCurveMapping:
    - {fileID: 21300000, guid: 17eb14b3830ec3a4ca2d808e644d783e, type: 3}
    - {fileID: 21300000, guid: ad689e40e106ab949ac87be93429c2c4, type: 3}
    - {fileID: 21300000, guid: 42a25d13ad55317449997b637f03fa40, type: 3}
    - {fileID: 21300000, guid: 8c7efa5d9e4ce5b488b01897d80c5073, type: 3}
    - {fileID: 21300000, guid: 48acf7caf250c8d48869b45a850a5274, type: 3}
    - {fileID: 21300000, guid: 74d3e3ef2405db04a85a51b80c76b3fe, type: 3}
    - {fileID: 21300000, guid: 95c2427eb626cd04c8930b0e45f4f2e9, type: 3}
    - {fileID: 21300000, guid: ce0c73d394c7cb24280b9ba348bbbaf8, type: 3}
    - {fileID: 21300000, guid: 198c8d6ed49d3084cbbcaf87cf8599c4, type: 3}
    - {fileID: 21300000, guid: b3a69284f30ee674980489729b200fb8, type: 3}
    - {fileID: 21300000, guid: 8fb5e1ad59363f342b07a9ba842cd4f8, type: 3}
    - {fileID: 21300000, guid: 02164c66826123e4c87a9fedd242c473, type: 3}
  m_AnimationClipSettings:
    serializedVersion: 2
    m_AdditiveReferencePoseClip: {fileID: 0}
    m_AdditiveReferencePoseTime: 0
    m_StartTime: 0
    m_StopTime: 1
    m_OrientationOffsetY: 0
    m_Level: 0
    m_CycleOffset: 0
    m_HasAdditiveReferencePose: 0
    m_LoopTime: 1
    m_LoopBlend: 0
    m_LoopBlendOrientation: 0
    m_LoopBlendPositionY: 0
    m_LoopBlendPositionXZ: 0
    m_KeepOriginalOrientation: 0
    m_KeepOriginalPositionY: 1
    m_KeepOriginalPositionXZ: 0
    m_HeightFromFeet: 0
    m_Mirror: 0
  m_EditorCurves:
  - curve:
      serializedVersion: 2
      m_Curve:
      - serializedVersion: 3
        time: 0
        value: -3.547203
        inSlope: 0
        outSlope: 0
        tangentMode: 136
        weightedMode: 0
        inWeight: 0.33333334
        outWeight: 0.33333334
      - serializedVersion: 3
        time: 0.9166667
        value: -3.4531145
        inSlope: 0
        outSlope: 0
        tangentMode: 136
        weightedMode: 0
        inWeight: 0.33333334
        outWeight: 0.33333334
      m_PreInfinity: 2
      m_PostInfinity: 2
      m_RotationOrder: 4
    attribute: m_Offset.y
    path: 
    classID: 58
    script: {fileID: 0}
  - curve:
      serializedVersion: 2
      m_Curve:
      - serializedVersion: 3
        time: 0
        value: 1.4336592
        inSlope: 0
        outSlope: 0
        tangentMode: 136
        weightedMode: 0
        inWeight: 0.33333334
        outWeight: 0.33333334
      - serializedVersion: 3
        time: 0.9166667
        value: 1.3395709
        inSlope: 0
        outSlope: 0
        tangentMode: 136
        weightedMode: 0
        inWeight: 0.33333334
        outWeight: 0.33333334
      m_PreInfinity: 2
      m_PostInfinity: 2
      m_RotationOrder: 4
    attribute: m_Radius
    path: 
    classID: 58
    script: {fileID: 0}
  m_EulerEditorCurves: []
  m_HasGenericRootTransform: 0
  m_HasMotionFloatCurves: 0
  m_GenerateMotionCurves: 0
  m_Events: []
